%YAML 1.1
%TAG !u! tag:unity3d.com,2011:
--- !u!29 &1
SceneSettings:
  m_ObjectHideFlags: 0
  m_PVSData: 
  m_PVSObjectsArray: []
  m_PVSPortalsArray: []
  m_OcclusionBakeSettings:
    smallestOccluder: 5
    smallestHole: 0.25
    backfaceThreshold: 100
--- !u!104 &2
RenderSettings:
  m_ObjectHideFlags: 0
  serializedVersion: 6
  m_Fog: 0
  m_FogColor: {r: 0.5, g: 0.5, b: 0.5, a: 1}
  m_FogMode: 3
  m_FogDensity: 0.01
  m_LinearFogStart: 0
  m_LinearFogEnd: 300
  m_AmbientSkyColor: {r: 0.212, g: 0.227, b: 0.259, a: 1}
  m_AmbientEquatorColor: {r: 0.114, g: 0.125, b: 0.133, a: 1}
  m_AmbientGroundColor: {r: 0.047, g: 0.043, b: 0.035, a: 1}
  m_AmbientIntensity: 1
  m_AmbientMode: 3
  m_SkyboxMaterial: {fileID: 0}
  m_HaloStrength: 0.5
  m_FlareStrength: 1
  m_FlareFadeSpeed: 3
  m_HaloTexture: {fileID: 0}
  m_SpotCookie: {fileID: 10001, guid: 0000000000000000e000000000000000, type: 0}
  m_DefaultReflectionMode: 0
  m_DefaultReflectionResolution: 128
  m_ReflectionBounces: 1
  m_ReflectionIntensity: 1
  m_CustomReflection: {fileID: 0}
  m_Sun: {fileID: 0}
--- !u!157 &4
LightmapSettings:
  m_ObjectHideFlags: 0
  serializedVersion: 6
  m_GIWorkflowMode: 0
  m_LightmapsMode: 1
  m_GISettings:
    serializedVersion: 2
    m_BounceScale: 1
    m_IndirectOutputScale: 1
    m_AlbedoBoost: 1
    m_TemporalCoherenceThreshold: 1
    m_EnvironmentLightingMode: 0
    m_EnableBakedLightmaps: 0
    m_EnableRealtimeLightmaps: 0
  m_LightmapEditorSettings:
    serializedVersion: 3
    m_Resolution: 2
    m_BakeResolution: 40
    m_TextureWidth: 1024
    m_TextureHeight: 1024
    m_AOMaxDistance: 1
    m_Padding: 2
    m_CompAOExponent: 0
    m_LightmapParameters: {fileID: 0}
    m_TextureCompression: 1
    m_FinalGather: 0
    m_FinalGatherRayCount: 1024
    m_ReflectionCompression: 2
  m_LightingDataAsset: {fileID: 0}
  m_RuntimeCPUUsage: 25
--- !u!196 &5
NavMeshSettings:
  serializedVersion: 2
  m_ObjectHideFlags: 0
  m_BuildSettings:
    serializedVersion: 2
    agentRadius: 0.5
    agentHeight: 2
    agentSlope: 45
    agentClimb: 0.4
    ledgeDropHeight: 0
    maxJumpAcrossDistance: 0
    accuratePlacement: 0
    minRegionArea: 2
    cellSize: 0.16666667
    manualCellSize: 0
  m_NavMeshData: {fileID: 0}
--- !u!1001 &39941857
Prefab:
  m_ObjectHideFlags: 0
  serializedVersion: 2
  m_Modification:
    m_TransformParent: {fileID: 0}
    m_Modifications:
    - target: {fileID: 466306, guid: 401d3d5587e7eb947b0721c1e71e25da, type: 2}
      propertyPath: m_LocalPosition.x
      value: 34.9370003
      objectReference: {fileID: 0}
    - target: {fileID: 466306, guid: 401d3d5587e7eb947b0721c1e71e25da, type: 2}
      propertyPath: m_LocalPosition.y
      value: -5.7185998
      objectReference: {fileID: 0}
    - target: {fileID: 466306, guid: 401d3d5587e7eb947b0721c1e71e25da, type: 2}
      propertyPath: m_LocalPosition.z
      value: 0
      objectReference: {fileID: 0}
    - target: {fileID: 466306, guid: 401d3d5587e7eb947b0721c1e71e25da, type: 2}
      propertyPath: m_LocalRotation.x
      value: 0
      objectReference: {fileID: 0}
    - target: {fileID: 466306, guid: 401d3d5587e7eb947b0721c1e71e25da, type: 2}
      propertyPath: m_LocalRotation.y
      value: 0
      objectReference: {fileID: 0}
    - target: {fileID: 466306, guid: 401d3d5587e7eb947b0721c1e71e25da, type: 2}
      propertyPath: m_LocalRotation.z
      value: 0
      objectReference: {fileID: 0}
    - target: {fileID: 466306, guid: 401d3d5587e7eb947b0721c1e71e25da, type: 2}
      propertyPath: m_LocalRotation.w
      value: 1
      objectReference: {fileID: 0}
    - target: {fileID: 466306, guid: 401d3d5587e7eb947b0721c1e71e25da, type: 2}
      propertyPath: m_RootOrder
      value: 0
      objectReference: {fileID: 0}
    - target: {fileID: 112534, guid: 401d3d5587e7eb947b0721c1e71e25da, type: 2}
      propertyPath: m_Name
      value: GenericPlatform (12)
      objectReference: {fileID: 0}
    - target: {fileID: 466306, guid: 401d3d5587e7eb947b0721c1e71e25da, type: 2}
      propertyPath: m_LocalScale.x
      value: 2.52937508
      objectReference: {fileID: 0}
    - target: {fileID: 466306, guid: 401d3d5587e7eb947b0721c1e71e25da, type: 2}
      propertyPath: m_LocalScale.y
      value: 13.9428682
      objectReference: {fileID: 0}
    m_RemovedComponents: []
  m_ParentPrefab: {fileID: 100100000, guid: 401d3d5587e7eb947b0721c1e71e25da, type: 2}
  m_IsPrefabParent: 0
--- !u!1001 &114559335
Prefab:
  m_ObjectHideFlags: 0
  serializedVersion: 2
  m_Modification:
    m_TransformParent: {fileID: 0}
    m_Modifications:
    - target: {fileID: 466306, guid: 401d3d5587e7eb947b0721c1e71e25da, type: 2}
      propertyPath: m_LocalPosition.x
      value: 11.4300003
      objectReference: {fileID: 0}
    - target: {fileID: 466306, guid: 401d3d5587e7eb947b0721c1e71e25da, type: 2}
      propertyPath: m_LocalPosition.y
      value: -11.1899996
      objectReference: {fileID: 0}
    - target: {fileID: 466306, guid: 401d3d5587e7eb947b0721c1e71e25da, type: 2}
      propertyPath: m_LocalPosition.z
      value: 0
      objectReference: {fileID: 0}
    - target: {fileID: 466306, guid: 401d3d5587e7eb947b0721c1e71e25da, type: 2}
      propertyPath: m_LocalRotation.x
      value: 0
      objectReference: {fileID: 0}
    - target: {fileID: 466306, guid: 401d3d5587e7eb947b0721c1e71e25da, type: 2}
      propertyPath: m_LocalRotation.y
      value: 0
      objectReference: {fileID: 0}
    - target: {fileID: 466306, guid: 401d3d5587e7eb947b0721c1e71e25da, type: 2}
      propertyPath: m_LocalRotation.z
      value: 0
      objectReference: {fileID: 0}
    - target: {fileID: 466306, guid: 401d3d5587e7eb947b0721c1e71e25da, type: 2}
      propertyPath: m_LocalRotation.w
      value: 1
      objectReference: {fileID: 0}
    - target: {fileID: 466306, guid: 401d3d5587e7eb947b0721c1e71e25da, type: 2}
      propertyPath: m_RootOrder
      value: 11
      objectReference: {fileID: 0}
    - target: {fileID: 112534, guid: 401d3d5587e7eb947b0721c1e71e25da, type: 2}
      propertyPath: m_Name
      value: GenericPlatform (6)
      objectReference: {fileID: 0}
    - target: {fileID: 466306, guid: 401d3d5587e7eb947b0721c1e71e25da, type: 2}
      propertyPath: m_LocalScale.x
      value: 6.28017807
      objectReference: {fileID: 0}
    m_RemovedComponents: []
  m_ParentPrefab: {fileID: 100100000, guid: 401d3d5587e7eb947b0721c1e71e25da, type: 2}
  m_IsPrefabParent: 0
--- !u!1001 &164545336
Prefab:
  m_ObjectHideFlags: 0
  serializedVersion: 2
  m_Modification:
    m_TransformParent: {fileID: 0}
    m_Modifications:
    - target: {fileID: 457746, guid: 5937067ef1f955049affbb4ba72050e2, type: 2}
      propertyPath: m_LocalPosition.x
      value: 3.49000001
      objectReference: {fileID: 0}
    - target: {fileID: 457746, guid: 5937067ef1f955049affbb4ba72050e2, type: 2}
      propertyPath: m_LocalPosition.y
      value: -2.94000006
      objectReference: {fileID: 0}
    - target: {fileID: 457746, guid: 5937067ef1f955049affbb4ba72050e2, type: 2}
      propertyPath: m_LocalPosition.z
      value: 0
      objectReference: {fileID: 0}
    - target: {fileID: 457746, guid: 5937067ef1f955049affbb4ba72050e2, type: 2}
      propertyPath: m_LocalRotation.x
      value: 0
      objectReference: {fileID: 0}
    - target: {fileID: 457746, guid: 5937067ef1f955049affbb4ba72050e2, type: 2}
      propertyPath: m_LocalRotation.y
      value: 0
      objectReference: {fileID: 0}
    - target: {fileID: 457746, guid: 5937067ef1f955049affbb4ba72050e2, type: 2}
      propertyPath: m_LocalRotation.z
      value: 0
      objectReference: {fileID: 0}
    - target: {fileID: 457746, guid: 5937067ef1f955049affbb4ba72050e2, type: 2}
      propertyPath: m_LocalRotation.w
      value: 1
      objectReference: {fileID: 0}
    - target: {fileID: 457746, guid: 5937067ef1f955049affbb4ba72050e2, type: 2}
      propertyPath: m_RootOrder
      value: 17
      objectReference: {fileID: 0}
    - target: {fileID: 146110, guid: 5937067ef1f955049affbb4ba72050e2, type: 2}
      propertyPath: m_Name
      value: S_WidePlant
      objectReference: {fileID: 0}
    - target: {fileID: 457746, guid: 5937067ef1f955049affbb4ba72050e2, type: 2}
      propertyPath: m_LocalScale.x
      value: 18.125
      objectReference: {fileID: 0}
    - target: {fileID: 480082, guid: 5937067ef1f955049affbb4ba72050e2, type: 2}
      propertyPath: m_LocalPosition.z
      value: -.00999999978
      objectReference: {fileID: 0}
    m_RemovedComponents: []
  m_ParentPrefab: {fileID: 100100000, guid: 5937067ef1f955049affbb4ba72050e2, type: 2}
  m_IsPrefabParent: 0
--- !u!1001 &199605164
Prefab:
  m_ObjectHideFlags: 0
  serializedVersion: 2
  m_Modification:
    m_TransformParent: {fileID: 0}
    m_Modifications:
    - target: {fileID: 466306, guid: 401d3d5587e7eb947b0721c1e71e25da, type: 2}
      propertyPath: m_LocalPosition.x
      value: -10.6599998
      objectReference: {fileID: 0}
    - target: {fileID: 466306, guid: 401d3d5587e7eb947b0721c1e71e25da, type: 2}
      propertyPath: m_LocalPosition.y
      value: 5.63000011
      objectReference: {fileID: 0}
    - target: {fileID: 466306, guid: 401d3d5587e7eb947b0721c1e71e25da, type: 2}
      propertyPath: m_LocalPosition.z
      value: 0
      objectReference: {fileID: 0}
    - target: {fileID: 466306, guid: 401d3d5587e7eb947b0721c1e71e25da, type: 2}
      propertyPath: m_LocalRotation.x
      value: 0
      objectReference: {fileID: 0}
    - target: {fileID: 466306, guid: 401d3d5587e7eb947b0721c1e71e25da, type: 2}
      propertyPath: m_LocalRotation.y
      value: 0
      objectReference: {fileID: 0}
    - target: {fileID: 466306, guid: 401d3d5587e7eb947b0721c1e71e25da, type: 2}
      propertyPath: m_LocalRotation.z
      value: 0
      objectReference: {fileID: 0}
    - target: {fileID: 466306, guid: 401d3d5587e7eb947b0721c1e71e25da, type: 2}
      propertyPath: m_LocalRotation.w
      value: 1
      objectReference: {fileID: 0}
    - target: {fileID: 466306, guid: 401d3d5587e7eb947b0721c1e71e25da, type: 2}
      propertyPath: m_RootOrder
      value: 2
      objectReference: {fileID: 0}
    - target: {fileID: 112534, guid: 401d3d5587e7eb947b0721c1e71e25da, type: 2}
      propertyPath: m_Name
      value: GenericPlatform (10)
      objectReference: {fileID: 0}
    - target: {fileID: 466306, guid: 401d3d5587e7eb947b0721c1e71e25da, type: 2}
      propertyPath: m_LocalScale.x
      value: 9.65215015
      objectReference: {fileID: 0}
    - target: {fileID: 466306, guid: 401d3d5587e7eb947b0721c1e71e25da, type: 2}
      propertyPath: m_LocalScale.y
      value: 9.9010191
      objectReference: {fileID: 0}
    m_RemovedComponents: []
  m_ParentPrefab: {fileID: 100100000, guid: 401d3d5587e7eb947b0721c1e71e25da, type: 2}
  m_IsPrefabParent: 0
--- !u!1 &214138125
GameObject:
  m_ObjectHideFlags: 0
  m_PrefabParentObject: {fileID: 0}
  m_PrefabInternal: {fileID: 0}
  serializedVersion: 4
  m_Component:
  - 4: {fileID: 214138127}
  - 212: {fileID: 214138126}
  m_Layer: 0
  m_Name: New Sprite
  m_TagString: Untagged
  m_Icon: {fileID: 0}
  m_NavMeshLayer: 0
  m_StaticEditorFlags: 0
  m_IsActive: 1
--- !u!212 &214138126
SpriteRenderer:
  m_ObjectHideFlags: 0
  m_PrefabParentObject: {fileID: 0}
  m_PrefabInternal: {fileID: 0}
  m_GameObject: {fileID: 214138125}
  m_Enabled: 1
  m_CastShadows: 0
  m_ReceiveShadows: 0
  m_Materials:
  - {fileID: 10754, guid: 0000000000000000e000000000000000, type: 0}
  m_SubsetIndices: 
  m_StaticBatchRoot: {fileID: 0}
  m_UseLightProbes: 1
  m_ReflectionProbeUsage: 1
  m_ProbeAnchor: {fileID: 0}
  m_ScaleInLightmap: 1
  m_PreserveUVs: 0
  m_IgnoreNormalsForChartDetection: 0
  m_ImportantGI: 0
  m_MinimumChartSize: 4
  m_AutoUVMaxDistance: 0.5
  m_AutoUVMaxAngle: 89
  m_LightmapParameters: {fileID: 0}
  m_SortingLayerID: 0
  m_SortingOrder: 0
  m_Sprite: {fileID: 21300000, guid: 5d6a228a8c51a4c14b529894f6715057, type: 3}
  m_Color: {r: 1, g: 1, b: 1, a: 1}
  m_FlipX: 0
  m_FlipY: 0
--- !u!4 &214138127
Transform:
  m_ObjectHideFlags: 0
  m_PrefabParentObject: {fileID: 0}
  m_PrefabInternal: {fileID: 0}
  m_GameObject: {fileID: 214138125}
  m_LocalRotation: {x: 0, y: 0, z: 0, w: 1}
  m_LocalPosition: {x: 32.89, y: -7.65, z: -0.01}
  m_LocalScale: {x: 1.5781164, y: 1.578117, z: 1.578117}
  m_Children: []
  m_Father: {fileID: 0}
  m_RootOrder: 26
--- !u!1001 &381257930
Prefab:
  m_ObjectHideFlags: 0
  serializedVersion: 2
  m_Modification:
    m_TransformParent: {fileID: 0}
    m_Modifications:
    - target: {fileID: 466306, guid: 401d3d5587e7eb947b0721c1e71e25da, type: 2}
      propertyPath: m_LocalPosition.x
      value: 7.69000006
      objectReference: {fileID: 0}
    - target: {fileID: 466306, guid: 401d3d5587e7eb947b0721c1e71e25da, type: 2}
      propertyPath: m_LocalPosition.y
      value: 3.68000007
      objectReference: {fileID: 0}
    - target: {fileID: 466306, guid: 401d3d5587e7eb947b0721c1e71e25da, type: 2}
      propertyPath: m_LocalPosition.z
      value: 0
      objectReference: {fileID: 0}
    - target: {fileID: 466306, guid: 401d3d5587e7eb947b0721c1e71e25da, type: 2}
      propertyPath: m_LocalRotation.x
      value: 0
      objectReference: {fileID: 0}
    - target: {fileID: 466306, guid: 401d3d5587e7eb947b0721c1e71e25da, type: 2}
      propertyPath: m_LocalRotation.y
      value: 0
      objectReference: {fileID: 0}
    - target: {fileID: 466306, guid: 401d3d5587e7eb947b0721c1e71e25da, type: 2}
      propertyPath: m_LocalRotation.z
      value: 0
      objectReference: {fileID: 0}
    - target: {fileID: 466306, guid: 401d3d5587e7eb947b0721c1e71e25da, type: 2}
      propertyPath: m_LocalRotation.w
      value: 1
      objectReference: {fileID: 0}
    - target: {fileID: 466306, guid: 401d3d5587e7eb947b0721c1e71e25da, type: 2}
      propertyPath: m_RootOrder
      value: 6
      objectReference: {fileID: 0}
    - target: {fileID: 112534, guid: 401d3d5587e7eb947b0721c1e71e25da, type: 2}
      propertyPath: m_Name
      value: GenericPlatform (3)
      objectReference: {fileID: 0}
    - target: {fileID: 466306, guid: 401d3d5587e7eb947b0721c1e71e25da, type: 2}
      propertyPath: m_LocalScale.x
      value: 2.52937508
      objectReference: {fileID: 0}
    - target: {fileID: 466306, guid: 401d3d5587e7eb947b0721c1e71e25da, type: 2}
      propertyPath: m_LocalScale.y
      value: 13.9428682
      objectReference: {fileID: 0}
    m_RemovedComponents: []
  m_ParentPrefab: {fileID: 100100000, guid: 401d3d5587e7eb947b0721c1e71e25da, type: 2}
  m_IsPrefabParent: 0
--- !u!4 &514714313 stripped
Transform:
  m_PrefabParentObject: {fileID: 404858, guid: 2789b0db9c12430439bebed03842b746, type: 2}
  m_PrefabInternal: {fileID: 1433246946}
--- !u!1001 &549194448
Prefab:
  m_ObjectHideFlags: 0
  serializedVersion: 2
  m_Modification:
    m_TransformParent: {fileID: 0}
    m_Modifications:
    - target: {fileID: 476546, guid: 9e623b3f44525154b9c611851a4c3fa2, type: 2}
      propertyPath: m_LocalPosition.x
      value: -32.3199997
      objectReference: {fileID: 0}
    - target: {fileID: 476546, guid: 9e623b3f44525154b9c611851a4c3fa2, type: 2}
      propertyPath: m_LocalPosition.y
      value: 4.0999999
      objectReference: {fileID: 0}
    - target: {fileID: 476546, guid: 9e623b3f44525154b9c611851a4c3fa2, type: 2}
      propertyPath: m_LocalPosition.z
      value: -.00999999978
      objectReference: {fileID: 0}
    - target: {fileID: 476546, guid: 9e623b3f44525154b9c611851a4c3fa2, type: 2}
      propertyPath: m_LocalRotation.x
      value: 0
      objectReference: {fileID: 0}
    - target: {fileID: 476546, guid: 9e623b3f44525154b9c611851a4c3fa2, type: 2}
      propertyPath: m_LocalRotation.y
      value: 0
      objectReference: {fileID: 0}
    - target: {fileID: 476546, guid: 9e623b3f44525154b9c611851a4c3fa2, type: 2}
      propertyPath: m_LocalRotation.z
      value: 0
      objectReference: {fileID: 0}
    - target: {fileID: 476546, guid: 9e623b3f44525154b9c611851a4c3fa2, type: 2}
      propertyPath: m_LocalRotation.w
      value: 1
      objectReference: {fileID: 0}
    - target: {fileID: 476546, guid: 9e623b3f44525154b9c611851a4c3fa2, type: 2}
      propertyPath: m_RootOrder
      value: 0
      objectReference: {fileID: 0}
    - target: {fileID: 21201428, guid: 9e623b3f44525154b9c611851a4c3fa2, type: 2}
      propertyPath: m_SortingOrder
      value: 9
      objectReference: {fileID: 0}
    - target: {fileID: 136408, guid: 9e623b3f44525154b9c611851a4c3fa2, type: 2}
      propertyPath: m_Name
      value: Season Node (1)
      objectReference: {fileID: 0}
    m_RemovedComponents: []
  m_ParentPrefab: {fileID: 100100000, guid: 9e623b3f44525154b9c611851a4c3fa2, type: 2}
  m_IsPrefabParent: 0
--- !u!1 &549194449 stripped
GameObject:
  m_PrefabParentObject: {fileID: 136408, guid: 9e623b3f44525154b9c611851a4c3fa2, type: 2}
  m_PrefabInternal: {fileID: 549194448}
--- !u!114 &549194450
MonoBehaviour:
  m_ObjectHideFlags: 0
  m_PrefabParentObject: {fileID: 0}
  m_PrefabInternal: {fileID: 0}
  m_GameObject: {fileID: 549194449}
  m_Enabled: 1
  m_EditorHideFlags: 0
  m_Script: {fileID: 11500000, guid: f39dccf3da9d1e24887351a7a7d02c40, type: 3}
  m_Name: 
  m_EditorClassIdentifier: 
--- !u!1001 &573545417
Prefab:
  m_ObjectHideFlags: 0
  serializedVersion: 2
  m_Modification:
    m_TransformParent: {fileID: 0}
    m_Modifications:
    - target: {fileID: 466306, guid: 401d3d5587e7eb947b0721c1e71e25da, type: 2}
      propertyPath: m_LocalPosition.x
      value: 25.7099991
      objectReference: {fileID: 0}
    - target: {fileID: 466306, guid: 401d3d5587e7eb947b0721c1e71e25da, type: 2}
      propertyPath: m_LocalPosition.y
      value: -12.1899996
      objectReference: {fileID: 0}
    - target: {fileID: 466306, guid: 401d3d5587e7eb947b0721c1e71e25da, type: 2}
      propertyPath: m_LocalPosition.z
      value: 0
      objectReference: {fileID: 0}
    - target: {fileID: 466306, guid: 401d3d5587e7eb947b0721c1e71e25da, type: 2}
      propertyPath: m_LocalRotation.x
      value: 0
      objectReference: {fileID: 0}
    - target: {fileID: 466306, guid: 401d3d5587e7eb947b0721c1e71e25da, type: 2}
      propertyPath: m_LocalRotation.y
      value: 0
      objectReference: {fileID: 0}
    - target: {fileID: 466306, guid: 401d3d5587e7eb947b0721c1e71e25da, type: 2}
      propertyPath: m_LocalRotation.z
      value: 0
      objectReference: {fileID: 0}
    - target: {fileID: 466306, guid: 401d3d5587e7eb947b0721c1e71e25da, type: 2}
      propertyPath: m_LocalRotation.w
      value: 1
      objectReference: {fileID: 0}
    - target: {fileID: 466306, guid: 401d3d5587e7eb947b0721c1e71e25da, type: 2}
      propertyPath: m_RootOrder
      value: 4
      objectReference: {fileID: 0}
    - target: {fileID: 112534, guid: 401d3d5587e7eb947b0721c1e71e25da, type: 2}
      propertyPath: m_Name
      value: GenericPlatform (8)
      objectReference: {fileID: 0}
    - target: {fileID: 466306, guid: 401d3d5587e7eb947b0721c1e71e25da, type: 2}
      propertyPath: m_LocalScale.x
      value: 15.9240656
      objectReference: {fileID: 0}
    m_RemovedComponents: []
  m_ParentPrefab: {fileID: 100100000, guid: 401d3d5587e7eb947b0721c1e71e25da, type: 2}
  m_IsPrefabParent: 0
--- !u!1001 &585083374
Prefab:
  m_ObjectHideFlags: 0
  serializedVersion: 2
  m_Modification:
    m_TransformParent: {fileID: 0}
    m_Modifications:
    - target: {fileID: 466306, guid: 401d3d5587e7eb947b0721c1e71e25da, type: 2}
      propertyPath: m_LocalPosition.x
      value: -10.6400003
      objectReference: {fileID: 0}
    - target: {fileID: 466306, guid: 401d3d5587e7eb947b0721c1e71e25da, type: 2}
      propertyPath: m_LocalPosition.y
      value: -7.05999994
      objectReference: {fileID: 0}
    - target: {fileID: 466306, guid: 401d3d5587e7eb947b0721c1e71e25da, type: 2}
      propertyPath: m_LocalPosition.z
      value: 0
      objectReference: {fileID: 0}
    - target: {fileID: 466306, guid: 401d3d5587e7eb947b0721c1e71e25da, type: 2}
      propertyPath: m_LocalRotation.x
      value: 0
      objectReference: {fileID: 0}
    - target: {fileID: 466306, guid: 401d3d5587e7eb947b0721c1e71e25da, type: 2}
      propertyPath: m_LocalRotation.y
      value: 0
      objectReference: {fileID: 0}
    - target: {fileID: 466306, guid: 401d3d5587e7eb947b0721c1e71e25da, type: 2}
      propertyPath: m_LocalRotation.z
      value: 0
      objectReference: {fileID: 0}
    - target: {fileID: 466306, guid: 401d3d5587e7eb947b0721c1e71e25da, type: 2}
      propertyPath: m_LocalRotation.w
      value: 1
      objectReference: {fileID: 0}
    - target: {fileID: 466306, guid: 401d3d5587e7eb947b0721c1e71e25da, type: 2}
      propertyPath: m_RootOrder
      value: 11
      objectReference: {fileID: 0}
    - target: {fileID: 466306, guid: 401d3d5587e7eb947b0721c1e71e25da, type: 2}
      propertyPath: m_LocalScale.x
      value: 22.4538746
      objectReference: {fileID: 0}
    - target: {fileID: 466306, guid: 401d3d5587e7eb947b0721c1e71e25da, type: 2}
      propertyPath: m_LocalScale.y
      value: 9.20987129
      objectReference: {fileID: 0}
    m_RemovedComponents: []
  m_ParentPrefab: {fileID: 100100000, guid: 401d3d5587e7eb947b0721c1e71e25da, type: 2}
  m_IsPrefabParent: 0
--- !u!1 &711781380 stripped
GameObject:
  m_PrefabParentObject: {fileID: 136408, guid: 9e623b3f44525154b9c611851a4c3fa2, type: 2}
  m_PrefabInternal: {fileID: 1972608482}
--- !u!114 &711781384
MonoBehaviour:
  m_ObjectHideFlags: 0
  m_PrefabParentObject: {fileID: 0}
  m_PrefabInternal: {fileID: 0}
  m_GameObject: {fileID: 711781380}
  m_Enabled: 1
  m_EditorHideFlags: 0
  m_Script: {fileID: 11500000, guid: f39dccf3da9d1e24887351a7a7d02c40, type: 3}
  m_Name: 
  m_EditorClassIdentifier: 
--- !u!1001 &726857460
Prefab:
  m_ObjectHideFlags: 0
  serializedVersion: 2
  m_Modification:
    m_TransformParent: {fileID: 0}
    m_Modifications:
    - target: {fileID: 476546, guid: 9e623b3f44525154b9c611851a4c3fa2, type: 2}
      propertyPath: m_LocalPosition.x
      value: 1.80999994
      objectReference: {fileID: 0}
    - target: {fileID: 476546, guid: 9e623b3f44525154b9c611851a4c3fa2, type: 2}
      propertyPath: m_LocalPosition.y
      value: -8.88000011
      objectReference: {fileID: 0}
    - target: {fileID: 476546, guid: 9e623b3f44525154b9c611851a4c3fa2, type: 2}
      propertyPath: m_LocalPosition.z
      value: -.00999999978
      objectReference: {fileID: 0}
    - target: {fileID: 476546, guid: 9e623b3f44525154b9c611851a4c3fa2, type: 2}
      propertyPath: m_LocalRotation.x
      value: 0
      objectReference: {fileID: 0}
    - target: {fileID: 476546, guid: 9e623b3f44525154b9c611851a4c3fa2, type: 2}
      propertyPath: m_LocalRotation.y
      value: 0
      objectReference: {fileID: 0}
    - target: {fileID: 476546, guid: 9e623b3f44525154b9c611851a4c3fa2, type: 2}
      propertyPath: m_LocalRotation.z
      value: 0
      objectReference: {fileID: 0}
    - target: {fileID: 476546, guid: 9e623b3f44525154b9c611851a4c3fa2, type: 2}
      propertyPath: m_LocalRotation.w
      value: 1
      objectReference: {fileID: 0}
    - target: {fileID: 476546, guid: 9e623b3f44525154b9c611851a4c3fa2, type: 2}
      propertyPath: m_RootOrder
      value: 0
      objectReference: {fileID: 0}
    - target: {fileID: 136408, guid: 9e623b3f44525154b9c611851a4c3fa2, type: 2}
      propertyPath: m_Name
      value: Season Node 1 (1)
      objectReference: {fileID: 0}
    - target: {fileID: 21201428, guid: 9e623b3f44525154b9c611851a4c3fa2, type: 2}
      propertyPath: m_SortingOrder
      value: 9
      objectReference: {fileID: 0}
    m_RemovedComponents: []
  m_ParentPrefab: {fileID: 100100000, guid: 9e623b3f44525154b9c611851a4c3fa2, type: 2}
  m_IsPrefabParent: 0
--- !u!1001 &735182796
Prefab:
  m_ObjectHideFlags: 0
  serializedVersion: 2
  m_Modification:
    m_TransformParent: {fileID: 0}
    m_Modifications:
    - target: {fileID: 466306, guid: 401d3d5587e7eb947b0721c1e71e25da, type: 2}
      propertyPath: m_LocalPosition.x
      value: 4.40100002
      objectReference: {fileID: 0}
    - target: {fileID: 466306, guid: 401d3d5587e7eb947b0721c1e71e25da, type: 2}
      propertyPath: m_LocalPosition.y
      value: -10.54
      objectReference: {fileID: 0}
    - target: {fileID: 466306, guid: 401d3d5587e7eb947b0721c1e71e25da, type: 2}
      propertyPath: m_LocalPosition.z
      value: 0
      objectReference: {fileID: 0}
    - target: {fileID: 466306, guid: 401d3d5587e7eb947b0721c1e71e25da, type: 2}
      propertyPath: m_LocalRotation.x
      value: 0
      objectReference: {fileID: 0}
    - target: {fileID: 466306, guid: 401d3d5587e7eb947b0721c1e71e25da, type: 2}
      propertyPath: m_LocalRotation.y
      value: 0
      objectReference: {fileID: 0}
    - target: {fileID: 466306, guid: 401d3d5587e7eb947b0721c1e71e25da, type: 2}
      propertyPath: m_LocalRotation.z
      value: 0
      objectReference: {fileID: 0}
    - target: {fileID: 466306, guid: 401d3d5587e7eb947b0721c1e71e25da, type: 2}
      propertyPath: m_LocalRotation.w
      value: 1
      objectReference: {fileID: 0}
    - target: {fileID: 466306, guid: 401d3d5587e7eb947b0721c1e71e25da, type: 2}
      propertyPath: m_RootOrder
      value: 14
      objectReference: {fileID: 0}
    - target: {fileID: 112534, guid: 401d3d5587e7eb947b0721c1e71e25da, type: 2}
      propertyPath: m_Name
      value: GenericPlatform (5)
      objectReference: {fileID: 0}
    - target: {fileID: 466306, guid: 401d3d5587e7eb947b0721c1e71e25da, type: 2}
      propertyPath: m_LocalScale.x
      value: 7.7919445
      objectReference: {fileID: 0}
    - target: {fileID: 466306, guid: 401d3d5587e7eb947b0721c1e71e25da, type: 2}
      propertyPath: m_LocalScale.y
      value: 2.29511786
      objectReference: {fileID: 0}
    m_RemovedComponents: []
  m_ParentPrefab: {fileID: 100100000, guid: 401d3d5587e7eb947b0721c1e71e25da, type: 2}
  m_IsPrefabParent: 0
--- !u!1 &843442906
GameObject:
  m_ObjectHideFlags: 0
  m_PrefabParentObject: {fileID: 0}
  m_PrefabInternal: {fileID: 0}
  serializedVersion: 4
  m_Component:
  - 4: {fileID: 843442908}
  - 212: {fileID: 843442907}
  m_Layer: 0
  m_Name: New Sprite (1)
  m_TagString: Untagged
  m_Icon: {fileID: 0}
  m_NavMeshLayer: 0
  m_StaticEditorFlags: 0
  m_IsActive: 1
--- !u!212 &843442907
SpriteRenderer:
  m_ObjectHideFlags: 0
  m_PrefabParentObject: {fileID: 0}
  m_PrefabInternal: {fileID: 0}
  m_GameObject: {fileID: 843442906}
  m_Enabled: 1
  m_CastShadows: 0
  m_ReceiveShadows: 0
  m_Materials:
  - {fileID: 10754, guid: 0000000000000000e000000000000000, type: 0}
  m_SubsetIndices: 
  m_StaticBatchRoot: {fileID: 0}
  m_UseLightProbes: 1
  m_ReflectionProbeUsage: 1
  m_ProbeAnchor: {fileID: 0}
  m_ScaleInLightmap: 1
  m_PreserveUVs: 0
  m_IgnoreNormalsForChartDetection: 0
  m_ImportantGI: 0
  m_MinimumChartSize: 4
  m_AutoUVMaxDistance: 0.5
  m_AutoUVMaxAngle: 89
  m_LightmapParameters: {fileID: 0}
  m_SortingLayerID: 0
  m_SortingOrder: 0
  m_Sprite: {fileID: 21300000, guid: 89a221a5d8a994a2ba7a14988185173b, type: 3}
  m_Color: {r: 1, g: 1, b: 1, a: 1}
  m_FlipX: 0
  m_FlipY: 0
--- !u!4 &843442908
Transform:
  m_ObjectHideFlags: 0
  m_PrefabParentObject: {fileID: 0}
  m_PrefabInternal: {fileID: 0}
  m_GameObject: {fileID: 843442906}
  m_LocalRotation: {x: 0, y: 0, z: 0, w: 1}
  m_LocalPosition: {x: 32.883, y: -10.901, z: 0}
  m_LocalScale: {x: 1.5781164, y: 1.578117, z: 1.578117}
  m_Children: []
  m_Father: {fileID: 0}
  m_RootOrder: 24
--- !u!1001 &855515522
Prefab:
  m_ObjectHideFlags: 0
  serializedVersion: 2
  m_Modification:
    m_TransformParent: {fileID: 0}
    m_Modifications:
    - target: {fileID: 424520, guid: f8c1ae29f80be5a439d565d3d433546a, type: 2}
      propertyPath: m_LocalPosition.x
      value: -33.9000015
      objectReference: {fileID: 0}
    - target: {fileID: 424520, guid: f8c1ae29f80be5a439d565d3d433546a, type: 2}
      propertyPath: m_LocalPosition.y
      value: 5.5
      objectReference: {fileID: 0}
    - target: {fileID: 424520, guid: f8c1ae29f80be5a439d565d3d433546a, type: 2}
      propertyPath: m_LocalPosition.z
      value: .00999999978
      objectReference: {fileID: 0}
    - target: {fileID: 424520, guid: f8c1ae29f80be5a439d565d3d433546a, type: 2}
      propertyPath: m_LocalRotation.x
      value: 0
      objectReference: {fileID: 0}
    - target: {fileID: 424520, guid: f8c1ae29f80be5a439d565d3d433546a, type: 2}
      propertyPath: m_LocalRotation.y
      value: 0
      objectReference: {fileID: 0}
    - target: {fileID: 424520, guid: f8c1ae29f80be5a439d565d3d433546a, type: 2}
      propertyPath: m_LocalRotation.z
      value: 0
      objectReference: {fileID: 0}
    - target: {fileID: 424520, guid: f8c1ae29f80be5a439d565d3d433546a, type: 2}
      propertyPath: m_LocalRotation.w
      value: 1
      objectReference: {fileID: 0}
    - target: {fileID: 424520, guid: f8c1ae29f80be5a439d565d3d433546a, type: 2}
      propertyPath: m_RootOrder
      value: 0
      objectReference: {fileID: 0}
    - target: {fileID: 161112, guid: f8c1ae29f80be5a439d565d3d433546a, type: 2}
      propertyPath: m_Name
      value: S_TallPlant_Grown (2)
      objectReference: {fileID: 0}
    - target: {fileID: 424520, guid: f8c1ae29f80be5a439d565d3d433546a, type: 2}
      propertyPath: m_LocalScale.y
      value: 12.7750006
      objectReference: {fileID: 0}
    - target: {fileID: 427910, guid: f8c1ae29f80be5a439d565d3d433546a, type: 2}
      propertyPath: m_LocalPosition.z
      value: -.00999999978
      objectReference: {fileID: 0}
    - target: {fileID: 21296842, guid: f8c1ae29f80be5a439d565d3d433546a, type: 2}
      propertyPath: m_SortingOrder
      value: 0
      objectReference: {fileID: 0}
    m_RemovedComponents: []
  m_ParentPrefab: {fileID: 100100000, guid: f8c1ae29f80be5a439d565d3d433546a, type: 2}
  m_IsPrefabParent: 0
--- !u!1 &955847970 stripped
GameObject:
  m_PrefabParentObject: {fileID: 136408, guid: 9e623b3f44525154b9c611851a4c3fa2, type: 2}
  m_PrefabInternal: {fileID: 726857460}
--- !u!114 &955847971
MonoBehaviour:
  m_ObjectHideFlags: 0
  m_PrefabParentObject: {fileID: 0}
  m_PrefabInternal: {fileID: 0}
  m_GameObject: {fileID: 955847970}
  m_Enabled: 1
  m_EditorHideFlags: 0
  m_Script: {fileID: 11500000, guid: f39dccf3da9d1e24887351a7a7d02c40, type: 3}
  m_Name: 
  m_EditorClassIdentifier: 
--- !u!1001 &982367636
Prefab:
  m_ObjectHideFlags: 0
  serializedVersion: 2
  m_Modification:
    m_TransformParent: {fileID: 0}
    m_Modifications:
    - target: {fileID: 466306, guid: 401d3d5587e7eb947b0721c1e71e25da, type: 2}
      propertyPath: m_LocalPosition.x
      value: 16.1499996
      objectReference: {fileID: 0}
    - target: {fileID: 466306, guid: 401d3d5587e7eb947b0721c1e71e25da, type: 2}
      propertyPath: m_LocalPosition.y
      value: -10.5699997
      objectReference: {fileID: 0}
    - target: {fileID: 466306, guid: 401d3d5587e7eb947b0721c1e71e25da, type: 2}
      propertyPath: m_LocalPosition.z
      value: 0
      objectReference: {fileID: 0}
    - target: {fileID: 466306, guid: 401d3d5587e7eb947b0721c1e71e25da, type: 2}
      propertyPath: m_LocalRotation.x
      value: 0
      objectReference: {fileID: 0}
    - target: {fileID: 466306, guid: 401d3d5587e7eb947b0721c1e71e25da, type: 2}
      propertyPath: m_LocalRotation.y
      value: 0
      objectReference: {fileID: 0}
    - target: {fileID: 466306, guid: 401d3d5587e7eb947b0721c1e71e25da, type: 2}
      propertyPath: m_LocalRotation.z
      value: 0
      objectReference: {fileID: 0}
    - target: {fileID: 466306, guid: 401d3d5587e7eb947b0721c1e71e25da, type: 2}
      propertyPath: m_LocalRotation.w
      value: 1
      objectReference: {fileID: 0}
    - target: {fileID: 466306, guid: 401d3d5587e7eb947b0721c1e71e25da, type: 2}
      propertyPath: m_RootOrder
      value: 18
      objectReference: {fileID: 0}
    - target: {fileID: 112534, guid: 401d3d5587e7eb947b0721c1e71e25da, type: 2}
      propertyPath: m_Name
      value: GenericPlatform (7)
      objectReference: {fileID: 0}
    - target: {fileID: 466306, guid: 401d3d5587e7eb947b0721c1e71e25da, type: 2}
      propertyPath: m_LocalScale.x
      value: 3.19412613
      objectReference: {fileID: 0}
    - target: {fileID: 466306, guid: 401d3d5587e7eb947b0721c1e71e25da, type: 2}
      propertyPath: m_LocalScale.y
      value: 4.27904558
      objectReference: {fileID: 0}
    m_RemovedComponents: []
  m_ParentPrefab: {fileID: 100100000, guid: 401d3d5587e7eb947b0721c1e71e25da, type: 2}
  m_IsPrefabParent: 0
--- !u!1001 &982747394
Prefab:
  m_ObjectHideFlags: 0
  serializedVersion: 2
  m_Modification:
    m_TransformParent: {fileID: 0}
    m_Modifications:
    - target: {fileID: 466306, guid: 401d3d5587e7eb947b0721c1e71e25da, type: 2}
      propertyPath: m_LocalPosition.x
      value: -40.9799995
      objectReference: {fileID: 0}
    - target: {fileID: 466306, guid: 401d3d5587e7eb947b0721c1e71e25da, type: 2}
      propertyPath: m_LocalPosition.y
      value: 3.41000009
      objectReference: {fileID: 0}
    - target: {fileID: 466306, guid: 401d3d5587e7eb947b0721c1e71e25da, type: 2}
      propertyPath: m_LocalPosition.z
      value: 0
      objectReference: {fileID: 0}
    - target: {fileID: 466306, guid: 401d3d5587e7eb947b0721c1e71e25da, type: 2}
      propertyPath: m_LocalRotation.x
      value: 0
      objectReference: {fileID: 0}
    - target: {fileID: 466306, guid: 401d3d5587e7eb947b0721c1e71e25da, type: 2}
      propertyPath: m_LocalRotation.y
      value: 0
      objectReference: {fileID: 0}
    - target: {fileID: 466306, guid: 401d3d5587e7eb947b0721c1e71e25da, type: 2}
      propertyPath: m_LocalRotation.z
      value: 0
      objectReference: {fileID: 0}
    - target: {fileID: 466306, guid: 401d3d5587e7eb947b0721c1e71e25da, type: 2}
      propertyPath: m_LocalRotation.w
      value: 1
      objectReference: {fileID: 0}
    - target: {fileID: 466306, guid: 401d3d5587e7eb947b0721c1e71e25da, type: 2}
      propertyPath: m_RootOrder
      value: 0
      objectReference: {fileID: 0}
    - target: {fileID: 112534, guid: 401d3d5587e7eb947b0721c1e71e25da, type: 2}
      propertyPath: m_Name
      value: GenericPlatform (4)
      objectReference: {fileID: 0}
    - target: {fileID: 466306, guid: 401d3d5587e7eb947b0721c1e71e25da, type: 2}
      propertyPath: m_LocalScale.x
      value: 2.52937508
      objectReference: {fileID: 0}
    - target: {fileID: 466306, guid: 401d3d5587e7eb947b0721c1e71e25da, type: 2}
      propertyPath: m_LocalScale.y
      value: 13.9428682
      objectReference: {fileID: 0}
    m_RemovedComponents: []
  m_ParentPrefab: {fileID: 100100000, guid: 401d3d5587e7eb947b0721c1e71e25da, type: 2}
  m_IsPrefabParent: 0
--- !u!1001 &1173235608
Prefab:
  m_ObjectHideFlags: 0
  serializedVersion: 2
  m_Modification:
    m_TransformParent: {fileID: 0}
    m_Modifications:
    - target: {fileID: 466306, guid: 401d3d5587e7eb947b0721c1e71e25da, type: 2}
      propertyPath: m_LocalPosition.x
      value: 1.09000003
      objectReference: {fileID: 0}
    - target: {fileID: 466306, guid: 401d3d5587e7eb947b0721c1e71e25da, type: 2}
      propertyPath: m_LocalPosition.y
      value: 1.13
      objectReference: {fileID: 0}
    - target: {fileID: 466306, guid: 401d3d5587e7eb947b0721c1e71e25da, type: 2}
      propertyPath: m_LocalPosition.z
      value: 0
      objectReference: {fileID: 0}
    - target: {fileID: 466306, guid: 401d3d5587e7eb947b0721c1e71e25da, type: 2}
      propertyPath: m_LocalRotation.x
      value: 0
      objectReference: {fileID: 0}
    - target: {fileID: 466306, guid: 401d3d5587e7eb947b0721c1e71e25da, type: 2}
      propertyPath: m_LocalRotation.y
      value: 0
      objectReference: {fileID: 0}
    - target: {fileID: 466306, guid: 401d3d5587e7eb947b0721c1e71e25da, type: 2}
      propertyPath: m_LocalRotation.z
      value: 0
      objectReference: {fileID: 0}
    - target: {fileID: 466306, guid: 401d3d5587e7eb947b0721c1e71e25da, type: 2}
      propertyPath: m_LocalRotation.w
      value: 1
      objectReference: {fileID: 0}
    - target: {fileID: 466306, guid: 401d3d5587e7eb947b0721c1e71e25da, type: 2}
      propertyPath: m_RootOrder
      value: 15
      objectReference: {fileID: 0}
    - target: {fileID: 112534, guid: 401d3d5587e7eb947b0721c1e71e25da, type: 2}
      propertyPath: m_Name
      value: GenericPlatform (1)
      objectReference: {fileID: 0}
    - target: {fileID: 466306, guid: 401d3d5587e7eb947b0721c1e71e25da, type: 2}
      propertyPath: m_LocalScale.x
      value: 11.560956
      objectReference: {fileID: 0}
    m_RemovedComponents: []
  m_ParentPrefab: {fileID: 100100000, guid: 401d3d5587e7eb947b0721c1e71e25da, type: 2}
  m_IsPrefabParent: 0
--- !u!1001 &1292750221
Prefab:
  m_ObjectHideFlags: 0
  serializedVersion: 2
  m_Modification:
    m_TransformParent: {fileID: 0}
    m_Modifications:
    - target: {fileID: 466306, guid: 401d3d5587e7eb947b0721c1e71e25da, type: 2}
      propertyPath: m_LocalPosition.x
      value: 28.6200008
      objectReference: {fileID: 0}
    - target: {fileID: 466306, guid: 401d3d5587e7eb947b0721c1e71e25da, type: 2}
      propertyPath: m_LocalPosition.y
      value: -8.93470001
      objectReference: {fileID: 0}
    - target: {fileID: 466306, guid: 401d3d5587e7eb947b0721c1e71e25da, type: 2}
      propertyPath: m_LocalPosition.z
      value: -.00999999978
      objectReference: {fileID: 0}
    - target: {fileID: 466306, guid: 401d3d5587e7eb947b0721c1e71e25da, type: 2}
      propertyPath: m_LocalRotation.x
      value: 0
      objectReference: {fileID: 0}
    - target: {fileID: 466306, guid: 401d3d5587e7eb947b0721c1e71e25da, type: 2}
      propertyPath: m_LocalRotation.y
      value: 0
      objectReference: {fileID: 0}
    - target: {fileID: 466306, guid: 401d3d5587e7eb947b0721c1e71e25da, type: 2}
      propertyPath: m_LocalRotation.z
      value: 0
      objectReference: {fileID: 0}
    - target: {fileID: 466306, guid: 401d3d5587e7eb947b0721c1e71e25da, type: 2}
      propertyPath: m_LocalRotation.w
      value: 1
      objectReference: {fileID: 0}
    - target: {fileID: 466306, guid: 401d3d5587e7eb947b0721c1e71e25da, type: 2}
      propertyPath: m_RootOrder
      value: 1
      objectReference: {fileID: 0}
    - target: {fileID: 112534, guid: 401d3d5587e7eb947b0721c1e71e25da, type: 2}
      propertyPath: m_Name
      value: GenericPlatform (9)
      objectReference: {fileID: 0}
    - target: {fileID: 466306, guid: 401d3d5587e7eb947b0721c1e71e25da, type: 2}
      propertyPath: m_LocalScale.x
      value: 10.1266613
      objectReference: {fileID: 0}
    m_RemovedComponents: []
  m_ParentPrefab: {fileID: 100100000, guid: 401d3d5587e7eb947b0721c1e71e25da, type: 2}
  m_IsPrefabParent: 0
--- !u!1 &1371241454
GameObject:
  m_ObjectHideFlags: 0
  m_PrefabParentObject: {fileID: 0}
  m_PrefabInternal: {fileID: 0}
  serializedVersion: 4
  m_Component:
  - 4: {fileID: 1371241459}
  - 20: {fileID: 1371241458}
  - 92: {fileID: 1371241457}
  - 124: {fileID: 1371241456}
  - 81: {fileID: 1371241455}
  - 114: {fileID: 1371241460}
  m_Layer: 0
  m_Name: Main Camera
  m_TagString: MainCamera
  m_Icon: {fileID: 0}
  m_NavMeshLayer: 0
  m_StaticEditorFlags: 0
  m_IsActive: 1
--- !u!81 &1371241455
AudioListener:
  m_ObjectHideFlags: 0
  m_PrefabParentObject: {fileID: 0}
  m_PrefabInternal: {fileID: 0}
  m_GameObject: {fileID: 1371241454}
  m_Enabled: 1
--- !u!124 &1371241456
Behaviour:
  m_ObjectHideFlags: 0
  m_PrefabParentObject: {fileID: 0}
  m_PrefabInternal: {fileID: 0}
  m_GameObject: {fileID: 1371241454}
  m_Enabled: 1
--- !u!92 &1371241457
Behaviour:
  m_ObjectHideFlags: 0
  m_PrefabParentObject: {fileID: 0}
  m_PrefabInternal: {fileID: 0}
  m_GameObject: {fileID: 1371241454}
  m_Enabled: 1
--- !u!20 &1371241458
Camera:
  m_ObjectHideFlags: 0
  m_PrefabParentObject: {fileID: 0}
  m_PrefabInternal: {fileID: 0}
  m_GameObject: {fileID: 1371241454}
  m_Enabled: 1
  serializedVersion: 2
  m_ClearFlags: 1
  m_BackGroundColor: {r: 0.19215687, g: 0.3019608, b: 0.4745098, a: 0.019607844}
  m_NormalizedViewPortRect:
    serializedVersion: 2
    x: 0
    y: 0
    width: 1
    height: 1
  near clip plane: 0.3
  far clip plane: 1000
  field of view: 60
  orthographic: 0
  orthographic size: 5
  m_Depth: -1
  m_CullingMask:
    serializedVersion: 2
    m_Bits: 4294967295
  m_RenderingPath: -1
  m_TargetTexture: {fileID: 0}
  m_TargetDisplay: 0
  m_TargetEye: 3
  m_HDR: 0
  m_OcclusionCulling: 1
  m_StereoConvergence: 10
  m_StereoSeparation: 0.022
  m_StereoMirrorMode: 0
--- !u!4 &1371241459
Transform:
  m_ObjectHideFlags: 0
  m_PrefabParentObject: {fileID: 0}
  m_PrefabInternal: {fileID: 0}
  m_GameObject: {fileID: 1371241454}
  m_LocalRotation: {x: 0, y: 0, z: 0, w: 1}
  m_LocalPosition: {x: -37.94, y: 4.22, z: -10}
  m_LocalScale: {x: 1, y: 1, z: 1}
  m_Children: []
  m_Father: {fileID: 0}
  m_RootOrder: 25
--- !u!114 &1371241460
MonoBehaviour:
  m_ObjectHideFlags: 0
  m_PrefabParentObject: {fileID: 0}
  m_PrefabInternal: {fileID: 0}
  m_GameObject: {fileID: 1371241454}
  m_Enabled: 1
  m_EditorHideFlags: 0
  m_Script: {fileID: 11500000, guid: 5d8238cc53530b64fbb7828c3d3bb591, type: 3}
  m_Name: 
  m_EditorClassIdentifier: 
  target: {fileID: 514714313}
  damping: 0.25
  lookAheadFactor: 4
  lookAheadReturnSpeed: 0.5
  lookAheadMoveThreshold: 0.1
--- !u!1001 &1433246946
Prefab:
  m_ObjectHideFlags: 0
  serializedVersion: 2
  m_Modification:
    m_TransformParent: {fileID: 0}
    m_Modifications:
    - target: {fileID: 404858, guid: 2789b0db9c12430439bebed03842b746, type: 2}
      propertyPath: m_LocalPosition.x
      value: -37.8400002
      objectReference: {fileID: 0}
    - target: {fileID: 404858, guid: 2789b0db9c12430439bebed03842b746, type: 2}
      propertyPath: m_LocalPosition.y
      value: 4.25
      objectReference: {fileID: 0}
    - target: {fileID: 404858, guid: 2789b0db9c12430439bebed03842b746, type: 2}
      propertyPath: m_LocalPosition.z
      value: 0
      objectReference: {fileID: 0}
    - target: {fileID: 404858, guid: 2789b0db9c12430439bebed03842b746, type: 2}
      propertyPath: m_LocalRotation.x
      value: 0
      objectReference: {fileID: 0}
    - target: {fileID: 404858, guid: 2789b0db9c12430439bebed03842b746, type: 2}
      propertyPath: m_LocalRotation.y
      value: 0
      objectReference: {fileID: 0}
    - target: {fileID: 404858, guid: 2789b0db9c12430439bebed03842b746, type: 2}
      propertyPath: m_LocalRotation.z
      value: 0
      objectReference: {fileID: 0}
    - target: {fileID: 404858, guid: 2789b0db9c12430439bebed03842b746, type: 2}
      propertyPath: m_LocalRotation.w
      value: 1
      objectReference: {fileID: 0}
    - target: {fileID: 404858, guid: 2789b0db9c12430439bebed03842b746, type: 2}
      propertyPath: m_RootOrder
      value: 7
      objectReference: {fileID: 0}
    - target: {fileID: 173430, guid: 2789b0db9c12430439bebed03842b746, type: 2}
      propertyPath: m_Layer
      value: 10
      objectReference: {fileID: 0}
    - target: {fileID: 179978, guid: 2789b0db9c12430439bebed03842b746, type: 2}
      propertyPath: m_Layer
      value: 10
      objectReference: {fileID: 0}
    - target: {fileID: 135534, guid: 2789b0db9c12430439bebed03842b746, type: 2}
      propertyPath: m_Layer
      value: 10
      objectReference: {fileID: 0}
    m_RemovedComponents: []
  m_ParentPrefab: {fileID: 100100000, guid: 2789b0db9c12430439bebed03842b746, type: 2}
  m_IsPrefabParent: 0
--- !u!1 &1450907741 stripped
GameObject:
  m_PrefabParentObject: {fileID: 136408, guid: 9e623b3f44525154b9c611851a4c3fa2, type: 2}
  m_PrefabInternal: {fileID: 1846099942}
--- !u!114 &1450907742
MonoBehaviour:
  m_ObjectHideFlags: 0
  m_PrefabParentObject: {fileID: 0}
  m_PrefabInternal: {fileID: 0}
  m_GameObject: {fileID: 1450907741}
  m_Enabled: 1
  m_EditorHideFlags: 0
  m_Script: {fileID: 11500000, guid: f39dccf3da9d1e24887351a7a7d02c40, type: 3}
  m_Name: 
  m_EditorClassIdentifier: 
--- !u!1001 &1462080419
Prefab:
  m_ObjectHideFlags: 0
  serializedVersion: 2
  m_Modification:
    m_TransformParent: {fileID: 0}
    m_Modifications:
    - target: {fileID: 424520, guid: f8c1ae29f80be5a439d565d3d433546a, type: 2}
      propertyPath: m_LocalPosition.x
      value: -26.9699993
      objectReference: {fileID: 0}
    - target: {fileID: 424520, guid: f8c1ae29f80be5a439d565d3d433546a, type: 2}
      propertyPath: m_LocalPosition.y
      value: 5.5
      objectReference: {fileID: 0}
    - target: {fileID: 424520, guid: f8c1ae29f80be5a439d565d3d433546a, type: 2}
      propertyPath: m_LocalPosition.z
      value: .00999999978
      objectReference: {fileID: 0}
    - target: {fileID: 424520, guid: f8c1ae29f80be5a439d565d3d433546a, type: 2}
      propertyPath: m_LocalRotation.x
      value: 0
      objectReference: {fileID: 0}
    - target: {fileID: 424520, guid: f8c1ae29f80be5a439d565d3d433546a, type: 2}
      propertyPath: m_LocalRotation.y
      value: 0
      objectReference: {fileID: 0}
    - target: {fileID: 424520, guid: f8c1ae29f80be5a439d565d3d433546a, type: 2}
      propertyPath: m_LocalRotation.z
      value: 0
      objectReference: {fileID: 0}
    - target: {fileID: 424520, guid: f8c1ae29f80be5a439d565d3d433546a, type: 2}
      propertyPath: m_LocalRotation.w
      value: 1
      objectReference: {fileID: 0}
    - target: {fileID: 424520, guid: f8c1ae29f80be5a439d565d3d433546a, type: 2}
      propertyPath: m_RootOrder
      value: 1
      objectReference: {fileID: 0}
    - target: {fileID: 161112, guid: f8c1ae29f80be5a439d565d3d433546a, type: 2}
      propertyPath: m_Name
      value: S_TallPlant_Grown (1)
      objectReference: {fileID: 0}
    - target: {fileID: 424520, guid: f8c1ae29f80be5a439d565d3d433546a, type: 2}
      propertyPath: m_LocalScale.y
      value: 12.7750006
      objectReference: {fileID: 0}
    - target: {fileID: 427910, guid: f8c1ae29f80be5a439d565d3d433546a, type: 2}
      propertyPath: m_LocalPosition.z
      value: -.00999999978
      objectReference: {fileID: 0}
    - target: {fileID: 21296842, guid: f8c1ae29f80be5a439d565d3d433546a, type: 2}
      propertyPath: m_SortingOrder
      value: 0
      objectReference: {fileID: 0}
    m_RemovedComponents: []
  m_ParentPrefab: {fileID: 100100000, guid: f8c1ae29f80be5a439d565d3d433546a, type: 2}
  m_IsPrefabParent: 0
--- !u!1 &1544881188 stripped
GameObject:
  m_PrefabParentObject: {fileID: 135534, guid: 2789b0db9c12430439bebed03842b746, type: 2}
  m_PrefabInternal: {fileID: 1433246946}
--- !u!114 &1544881193
MonoBehaviour:
  m_ObjectHideFlags: 0
  m_PrefabParentObject: {fileID: 0}
  m_PrefabInternal: {fileID: 0}
  m_GameObject: {fileID: 1544881188}
  m_Enabled: 1
  m_EditorHideFlags: 0
  m_Script: {fileID: 11500000, guid: f39dccf3da9d1e24887351a7a7d02c40, type: 3}
  m_Name: 
  m_EditorClassIdentifier: 
--- !u!1001 &1590949042
Prefab:
  m_ObjectHideFlags: 0
  serializedVersion: 2
  m_Modification:
    m_TransformParent: {fileID: 0}
    m_Modifications:
    - target: {fileID: 423544, guid: c1668f0be73336642bf8312cbfeff361, type: 2}
      propertyPath: m_LocalPosition.x
      value: 11.4309998
      objectReference: {fileID: 0}
    - target: {fileID: 423544, guid: c1668f0be73336642bf8312cbfeff361, type: 2}
      propertyPath: m_LocalPosition.y
      value: -10.1660004
      objectReference: {fileID: 0}
    - target: {fileID: 423544, guid: c1668f0be73336642bf8312cbfeff361, type: 2}
      propertyPath: m_LocalPosition.z
      value: -.00999999978
      objectReference: {fileID: 0}
    - target: {fileID: 423544, guid: c1668f0be73336642bf8312cbfeff361, type: 2}
      propertyPath: m_LocalRotation.x
      value: 0
      objectReference: {fileID: 0}
    - target: {fileID: 423544, guid: c1668f0be73336642bf8312cbfeff361, type: 2}
      propertyPath: m_LocalRotation.y
      value: 0
      objectReference: {fileID: 0}
    - target: {fileID: 423544, guid: c1668f0be73336642bf8312cbfeff361, type: 2}
      propertyPath: m_LocalRotation.z
      value: 0
      objectReference: {fileID: 0}
    - target: {fileID: 423544, guid: c1668f0be73336642bf8312cbfeff361, type: 2}
      propertyPath: m_LocalRotation.w
      value: 1
      objectReference: {fileID: 0}
    - target: {fileID: 423544, guid: c1668f0be73336642bf8312cbfeff361, type: 2}
      propertyPath: m_RootOrder
      value: 20
      objectReference: {fileID: 0}
    - target: {fileID: 423544, guid: c1668f0be73336642bf8312cbfeff361, type: 2}
      propertyPath: m_LocalScale.x
      value: 6.28285408
      objectReference: {fileID: 0}
    - target: {fileID: 423544, guid: c1668f0be73336642bf8312cbfeff361, type: 2}
      propertyPath: m_LocalScale.y
      value: 1.04738796
      objectReference: {fileID: 0}
    - target: {fileID: 21252786, guid: c1668f0be73336642bf8312cbfeff361, type: 2}
      propertyPath: m_SortingOrder
      value: 9
      objectReference: {fileID: 0}
    - target: {fileID: 475488, guid: c1668f0be73336642bf8312cbfeff361, type: 2}
      propertyPath: m_LocalScale.y
      value: 1.24999976
      objectReference: {fileID: 0}
    m_RemovedComponents: []
  m_ParentPrefab: {fileID: 100100000, guid: c1668f0be73336642bf8312cbfeff361, type: 2}
  m_IsPrefabParent: 0
--- !u!1001 &1737172577
Prefab:
  m_ObjectHideFlags: 0
  serializedVersion: 2
  m_Modification:
    m_TransformParent: {fileID: 0}
    m_Modifications:
    - target: {fileID: 457746, guid: 5937067ef1f955049affbb4ba72050e2, type: 2}
      propertyPath: m_LocalPosition.x
      value: 20.6499996
      objectReference: {fileID: 0}
    - target: {fileID: 457746, guid: 5937067ef1f955049affbb4ba72050e2, type: 2}
      propertyPath: m_LocalPosition.y
      value: -8.90999985
      objectReference: {fileID: 0}
    - target: {fileID: 457746, guid: 5937067ef1f955049affbb4ba72050e2, type: 2}
      propertyPath: m_LocalPosition.z
      value: 0
      objectReference: {fileID: 0}
    - target: {fileID: 457746, guid: 5937067ef1f955049affbb4ba72050e2, type: 2}
      propertyPath: m_LocalRotation.x
      value: 0
      objectReference: {fileID: 0}
    - target: {fileID: 457746, guid: 5937067ef1f955049affbb4ba72050e2, type: 2}
      propertyPath: m_LocalRotation.y
      value: 0
      objectReference: {fileID: 0}
    - target: {fileID: 457746, guid: 5937067ef1f955049affbb4ba72050e2, type: 2}
      propertyPath: m_LocalRotation.z
      value: 0
      objectReference: {fileID: 0}
    - target: {fileID: 457746, guid: 5937067ef1f955049affbb4ba72050e2, type: 2}
      propertyPath: m_LocalRotation.w
      value: 1
      objectReference: {fileID: 0}
    - target: {fileID: 457746, guid: 5937067ef1f955049affbb4ba72050e2, type: 2}
      propertyPath: m_RootOrder
      value: 2
      objectReference: {fileID: 0}
    - target: {fileID: 146110, guid: 5937067ef1f955049affbb4ba72050e2, type: 2}
      propertyPath: m_Name
      value: S_WidePlant (1)
      objectReference: {fileID: 0}
    - target: {fileID: 457746, guid: 5937067ef1f955049affbb4ba72050e2, type: 2}
      propertyPath: m_LocalScale.x
      value: 18.125
      objectReference: {fileID: 0}
    - target: {fileID: 480082, guid: 5937067ef1f955049affbb4ba72050e2, type: 2}
      propertyPath: m_LocalPosition.z
      value: -.00999999978
      objectReference: {fileID: 0}
    - target: {fileID: 21206774, guid: 5937067ef1f955049affbb4ba72050e2, type: 2}
      propertyPath: m_SortingOrder
      value: 9
      objectReference: {fileID: 0}
    m_RemovedComponents: []
  m_ParentPrefab: {fileID: 100100000, guid: 5937067ef1f955049affbb4ba72050e2, type: 2}
  m_IsPrefabParent: 0
--- !u!1001 &1803623673
Prefab:
  m_ObjectHideFlags: 0
  serializedVersion: 2
  m_Modification:
    m_TransformParent: {fileID: 0}
    m_Modifications:
    - target: {fileID: 424520, guid: f8c1ae29f80be5a439d565d3d433546a, type: 2}
      propertyPath: m_LocalPosition.x
      value: -5.0999999
      objectReference: {fileID: 0}
    - target: {fileID: 424520, guid: f8c1ae29f80be5a439d565d3d433546a, type: 2}
      propertyPath: m_LocalPosition.y
      value: -.419999987
      objectReference: {fileID: 0}
    - target: {fileID: 424520, guid: f8c1ae29f80be5a439d565d3d433546a, type: 2}
      propertyPath: m_LocalPosition.z
      value: .00999999978
      objectReference: {fileID: 0}
    - target: {fileID: 424520, guid: f8c1ae29f80be5a439d565d3d433546a, type: 2}
      propertyPath: m_LocalRotation.x
      value: 0
      objectReference: {fileID: 0}
    - target: {fileID: 424520, guid: f8c1ae29f80be5a439d565d3d433546a, type: 2}
      propertyPath: m_LocalRotation.y
      value: 0
      objectReference: {fileID: 0}
    - target: {fileID: 424520, guid: f8c1ae29f80be5a439d565d3d433546a, type: 2}
      propertyPath: m_LocalRotation.z
      value: 0
      objectReference: {fileID: 0}
    - target: {fileID: 424520, guid: f8c1ae29f80be5a439d565d3d433546a, type: 2}
      propertyPath: m_LocalRotation.w
      value: 1
      objectReference: {fileID: 0}
    - target: {fileID: 424520, guid: f8c1ae29f80be5a439d565d3d433546a, type: 2}
      propertyPath: m_RootOrder
      value: 15
      objectReference: {fileID: 0}
    - target: {fileID: 161112, guid: f8c1ae29f80be5a439d565d3d433546a, type: 2}
      propertyPath: m_Name
      value: S_TallPlant_Grown
      objectReference: {fileID: 0}
    - target: {fileID: 424520, guid: f8c1ae29f80be5a439d565d3d433546a, type: 2}
      propertyPath: m_LocalScale.y
      value: 12.7750006
      objectReference: {fileID: 0}
    - target: {fileID: 427910, guid: f8c1ae29f80be5a439d565d3d433546a, type: 2}
      propertyPath: m_LocalPosition.z
      value: -.00999999978
      objectReference: {fileID: 0}
    m_RemovedComponents: []
  m_ParentPrefab: {fileID: 100100000, guid: f8c1ae29f80be5a439d565d3d433546a, type: 2}
  m_IsPrefabParent: 0
--- !u!1001 &1846099942
Prefab:
  m_ObjectHideFlags: 0
  serializedVersion: 2
  m_Modification:
    m_TransformParent: {fileID: 0}
    m_Modifications:
    - target: {fileID: 476546, guid: 9e623b3f44525154b9c611851a4c3fa2, type: 2}
      propertyPath: m_LocalPosition.x
      value: -.349999994
      objectReference: {fileID: 0}
    - target: {fileID: 476546, guid: 9e623b3f44525154b9c611851a4c3fa2, type: 2}
      propertyPath: m_LocalPosition.y
      value: 2.23000002
      objectReference: {fileID: 0}
    - target: {fileID: 476546, guid: 9e623b3f44525154b9c611851a4c3fa2, type: 2}
      propertyPath: m_LocalPosition.z
      value: -.00999999978
      objectReference: {fileID: 0}
    - target: {fileID: 476546, guid: 9e623b3f44525154b9c611851a4c3fa2, type: 2}
      propertyPath: m_LocalRotation.x
      value: 0
      objectReference: {fileID: 0}
    - target: {fileID: 476546, guid: 9e623b3f44525154b9c611851a4c3fa2, type: 2}
      propertyPath: m_LocalRotation.y
      value: 0
      objectReference: {fileID: 0}
    - target: {fileID: 476546, guid: 9e623b3f44525154b9c611851a4c3fa2, type: 2}
      propertyPath: m_LocalRotation.z
      value: 0
      objectReference: {fileID: 0}
    - target: {fileID: 476546, guid: 9e623b3f44525154b9c611851a4c3fa2, type: 2}
      propertyPath: m_LocalRotation.w
      value: 1
      objectReference: {fileID: 0}
    - target: {fileID: 476546, guid: 9e623b3f44525154b9c611851a4c3fa2, type: 2}
      propertyPath: m_RootOrder
      value: 2
      objectReference: {fileID: 0}
    - target: {fileID: 136408, guid: 9e623b3f44525154b9c611851a4c3fa2, type: 2}
      propertyPath: m_Name
      value: Season Node 1
      objectReference: {fileID: 0}
    - target: {fileID: 21201428, guid: 9e623b3f44525154b9c611851a4c3fa2, type: 2}
      propertyPath: m_SortingOrder
      value: 9
      objectReference: {fileID: 0}
    m_RemovedComponents: []
  m_ParentPrefab: {fileID: 100100000, guid: 9e623b3f44525154b9c611851a4c3fa2, type: 2}
  m_IsPrefabParent: 0
--- !u!1001 &1972608482
Prefab:
  m_ObjectHideFlags: 0
  serializedVersion: 2
  m_Modification:
    m_TransformParent: {fileID: 0}
    m_Modifications:
    - target: {fileID: 476546, guid: 9e623b3f44525154b9c611851a4c3fa2, type: 2}
      propertyPath: m_LocalPosition.x
      value: -11.8599997
      objectReference: {fileID: 0}
    - target: {fileID: 476546, guid: 9e623b3f44525154b9c611851a4c3fa2, type: 2}
      propertyPath: m_LocalPosition.y
      value: -2.28999996
      objectReference: {fileID: 0}
    - target: {fileID: 476546, guid: 9e623b3f44525154b9c611851a4c3fa2, type: 2}
      propertyPath: m_LocalPosition.z
      value: -.00999999978
      objectReference: {fileID: 0}
    - target: {fileID: 476546, guid: 9e623b3f44525154b9c611851a4c3fa2, type: 2}
      propertyPath: m_LocalRotation.x
      value: 0
      objectReference: {fileID: 0}
    - target: {fileID: 476546, guid: 9e623b3f44525154b9c611851a4c3fa2, type: 2}
      propertyPath: m_LocalRotation.y
      value: 0
      objectReference: {fileID: 0}
    - target: {fileID: 476546, guid: 9e623b3f44525154b9c611851a4c3fa2, type: 2}
      propertyPath: m_LocalRotation.z
      value: 0
      objectReference: {fileID: 0}
    - target: {fileID: 476546, guid: 9e623b3f44525154b9c611851a4c3fa2, type: 2}
      propertyPath: m_LocalRotation.w
      value: 1
      objectReference: {fileID: 0}
    - target: {fileID: 476546, guid: 9e623b3f44525154b9c611851a4c3fa2, type: 2}
      propertyPath: m_RootOrder
      value: 5
      objectReference: {fileID: 0}
    m_RemovedComponents: []
  m_ParentPrefab: {fileID: 100100000, guid: 9e623b3f44525154b9c611851a4c3fa2, type: 2}
  m_IsPrefabParent: 0
--- !u!1001 &2040681861
Prefab:
  m_ObjectHideFlags: 0
  serializedVersion: 2
  m_Modification:
    m_TransformParent: {fileID: 0}
    m_Modifications:
    - target: {fileID: 466306, guid: 401d3d5587e7eb947b0721c1e71e25da, type: 2}
      propertyPath: m_LocalPosition.x
      value: -30.8199997
      objectReference: {fileID: 0}
    - target: {fileID: 466306, guid: 401d3d5587e7eb947b0721c1e71e25da, type: 2}
      propertyPath: m_LocalPosition.y
      value: .0378209986
      objectReference: {fileID: 0}
    - target: {fileID: 466306, guid: 401d3d5587e7eb947b0721c1e71e25da, type: 2}
      propertyPath: m_LocalPosition.z
      value: 0
      objectReference: {fileID: 0}
    - target: {fileID: 466306, guid: 401d3d5587e7eb947b0721c1e71e25da, type: 2}
      propertyPath: m_LocalRotation.x
      value: 0
      objectReference: {fileID: 0}
    - target: {fileID: 466306, guid: 401d3d5587e7eb947b0721c1e71e25da, type: 2}
      propertyPath: m_LocalRotation.y
      value: 0
      objectReference: {fileID: 0}
    - target: {fileID: 466306, guid: 401d3d5587e7eb947b0721c1e71e25da, type: 2}
      propertyPath: m_LocalRotation.z
      value: 0
      objectReference: {fileID: 0}
    - target: {fileID: 466306, guid: 401d3d5587e7eb947b0721c1e71e25da, type: 2}
      propertyPath: m_LocalRotation.w
      value: 1
      objectReference: {fileID: 0}
    - target: {fileID: 466306, guid: 401d3d5587e7eb947b0721c1e71e25da, type: 2}
      propertyPath: m_RootOrder
      value: 2
      objectReference: {fileID: 0}
    - target: {fileID: 112534, guid: 401d3d5587e7eb947b0721c1e71e25da, type: 2}
      propertyPath: m_Name
      value: GenericPlatform (13)
      objectReference: {fileID: 0}
    - target: {fileID: 466306, guid: 401d3d5587e7eb947b0721c1e71e25da, type: 2}
      propertyPath: m_LocalScale.x
      value: 17.9069614
      objectReference: {fileID: 0}
    - target: {fileID: 466306, guid: 401d3d5587e7eb947b0721c1e71e25da, type: 2}
      propertyPath: m_LocalScale.y
      value: 6.99564219
      objectReference: {fileID: 0}
    m_RemovedComponents: []
  m_ParentPrefab: {fileID: 100100000, guid: 401d3d5587e7eb947b0721c1e71e25da, type: 2}
  m_IsPrefabParent: 0
--- !u!1 &2083058259
GameObject:
  m_ObjectHideFlags: 0
  m_PrefabParentObject: {fileID: 0}
  m_PrefabInternal: {fileID: 0}
  serializedVersion: 4
  m_Component:
  - 4: {fileID: 2083058261}
  - 114: {fileID: 2083058260}
  m_Layer: 0
  m_Name: GlobalScripts
  m_TagString: Untagged
  m_Icon: {fileID: 0}
  m_NavMeshLayer: 0
  m_StaticEditorFlags: 0
  m_IsActive: 1
--- !u!114 &2083058260
MonoBehaviour:
  m_ObjectHideFlags: 0
  m_PrefabParentObject: {fileID: 0}
  m_PrefabInternal: {fileID: 0}
  m_GameObject: {fileID: 2083058259}
  m_Enabled: 1
  m_EditorHideFlags: 0
  m_Script: {fileID: 11500000, guid: 5e0fe6dda54f00948bea59a234f56f03, type: 3}
  m_Name: 
  m_EditorClassIdentifier: 
  globalSeason: 0
  nodeSeason: 3
--- !u!4 &2083058261
Transform:
  m_ObjectHideFlags: 0
  m_PrefabParentObject: {fileID: 0}
  m_PrefabInternal: {fileID: 0}
  m_GameObject: {fileID: 2083058259}
  m_LocalRotation: {x: 0, y: 0, z: 0, w: 1}
  m_LocalPosition: {x: 0, y: 0, z: 0}
  m_LocalScale: {x: 1, y: 1, z: 1}
  m_Children: []
  m_Father: {fileID: 0}
  m_RootOrder: 23
